digraph G {
	node [shape=box, fontname=Menlo, background=transparent]

	das_frsemcor [shape=box; label = "sequoia.deep_and_surf.parseme.frsemcor", style=filled, fillcolor="#FFCF66"]

	das_conll [shape=box; label = "sequoia.deep_and_surf.conll", style=filled, fillcolor="#A5D993"]
	cut10 [shape=Mrecord, style=rounded, label = "cut -f 1-10"]
	das_frsemcor -> cut10 -> das_conll;

	s_conll [shape=box; label = "sequoia.surf.conll", style=filled, fillcolor="#A5D993"]
	grew_surf [shape=Mrecord, style=rounded, label = "sequoia_proj.grs (strat=surf)"]
	das_conll -> grew_surf -> s_conll;

	ud_seq [shape=box, label = "sequoia-ud.conllu", style=filled, fillcolor="#A5D993"]
	ssq_ud [shape=Mrecord, style=rounded, label = "ssq_to_ud/main.grs"]
	s_conll -> ssq_ud -> ud_seq

	s_semcor [shape=box; label = "sequoia.surf.parseme.frsemcor", style=filled, fillcolor="#FFCF66"]
	grew_surf_semcor [shape=Mrecord, style=rounded, label = "sequoia_proj.grs (strat=surf)"]
	das_frsemcor -> grew_surf_semcor -> s_semcor;

	ud_seq_semcor [shape=box, label = "sequoia-ud.parseme.frsemcor", style=filled, fillcolor="#FFCF66"]
	ssq_ud_semcor [shape=Mrecord, style=rounded, label = "ssq_to_ud/main.grs"]
	s_semcor -> ssq_ud_semcor -> ud_seq_semcor

  {rank=same; grew_surf; grew_surf_semcor}
  {rank=same; s_conll}
}
