<?xml version="1.0" encoding="UTF-8" standalone="no"?>
<!DOCTYPE svg PUBLIC "-//W3C//DTD SVG 1.1//EN"
 "http://www.w3.org/Graphics/SVG/1.1/DTD/svg11.dtd">
<!-- Generated by graphviz version 2.40.1 (20161225.0304)
 -->
<!-- Title: G Pages: 1 -->
<svg width="548pt" height="479pt"
 viewBox="0.00 0.00 548.00 479.00" xmlns="http://www.w3.org/2000/svg" xmlns:xlink="http://www.w3.org/1999/xlink">
<g id="graph0" class="graph" transform="scale(1 1) rotate(0) translate(4 475)">
<title>G</title>
<polygon fill="#ffffff" stroke="transparent" points="-4,4 -4,-475 544,-475 544,4 -4,4"/>
<!-- das_frsemcor -->
<g id="node1" class="node">
<title>das_frsemcor</title>
<polygon fill="#ffcf66" stroke="#000000" points="470,-471 133,-471 133,-435 470,-435 470,-471"/>
<text text-anchor="middle" x="301.5" y="-449.3" font-family="Menlo" font-size="14.00" fill="#000000">sequoia.deep_and_surf.parseme.frsemcor</text>
</g>
<!-- cut10 -->
<g id="node3" class="node">
<title>cut10</title>
<path fill="none" stroke="#000000" d="M218,-362.5C218,-362.5 303,-362.5 303,-362.5 309,-362.5 315,-368.5 315,-374.5 315,-374.5 315,-386.5 315,-386.5 315,-392.5 309,-398.5 303,-398.5 303,-398.5 218,-398.5 218,-398.5 212,-398.5 206,-392.5 206,-386.5 206,-386.5 206,-374.5 206,-374.5 206,-368.5 212,-362.5 218,-362.5"/>
<text text-anchor="middle" x="260.5" y="-376.8" font-family="Menlo" font-size="14.00" fill="#000000">cut &#45;f 1&#45;10</text>
</g>
<!-- das_frsemcor&#45;&gt;cut10 -->
<g id="edge1" class="edge">
<title>das_frsemcor&#45;&gt;cut10</title>
<path fill="none" stroke="#000000" d="M291.154,-434.7052C286.4569,-426.3994 280.8084,-416.4112 275.6468,-407.2839"/>
<polygon fill="#000000" stroke="#000000" points="278.6699,-405.5194 270.7007,-398.5378 272.5767,-408.9652 278.6699,-405.5194"/>
</g>
<!-- grew_surf_semcor -->
<g id="node9" class="node">
<title>grew_surf_semcor</title>
<path fill="none" stroke="#000000" d="M291,-217.5C291,-217.5 528,-217.5 528,-217.5 534,-217.5 540,-223.5 540,-229.5 540,-229.5 540,-241.5 540,-241.5 540,-247.5 534,-253.5 528,-253.5 528,-253.5 291,-253.5 291,-253.5 285,-253.5 279,-247.5 279,-241.5 279,-241.5 279,-229.5 279,-229.5 279,-223.5 285,-217.5 291,-217.5"/>
<text text-anchor="middle" x="409.5" y="-231.8" font-family="Menlo" font-size="14.00" fill="#000000">sequoia_proj.grs (strat=surf)</text>
</g>
<!-- das_frsemcor&#45;&gt;grew_surf_semcor -->
<g id="edge7" class="edge">
<title>das_frsemcor&#45;&gt;grew_surf_semcor</title>
<path fill="none" stroke="#000000" d="M310.5223,-434.8302C329.4619,-396.6878 373.4591,-308.0824 395.863,-262.9634"/>
<polygon fill="#000000" stroke="#000000" points="399.1148,-264.2843 400.4275,-253.7711 392.8452,-261.1711 399.1148,-264.2843"/>
</g>
<!-- das_conll -->
<g id="node2" class="node">
<title>das_conll</title>
<polygon fill="#a5d993" stroke="#000000" points="316.5,-326 72.5,-326 72.5,-290 316.5,-290 316.5,-326"/>
<text text-anchor="middle" x="194.5" y="-304.3" font-family="Menlo" font-size="14.00" fill="#000000">sequoia.deep_and_surf.conll</text>
</g>
<!-- grew_surf -->
<g id="node5" class="node">
<title>grew_surf</title>
<path fill="none" stroke="#000000" d="M12,-217.5C12,-217.5 249,-217.5 249,-217.5 255,-217.5 261,-223.5 261,-229.5 261,-229.5 261,-241.5 261,-241.5 261,-247.5 255,-253.5 249,-253.5 249,-253.5 12,-253.5 12,-253.5 6,-253.5 0,-247.5 0,-241.5 0,-241.5 0,-229.5 0,-229.5 0,-223.5 6,-217.5 12,-217.5"/>
<text text-anchor="middle" x="130.5" y="-231.8" font-family="Menlo" font-size="14.00" fill="#000000">sequoia_proj.grs (strat=surf)</text>
</g>
<!-- das_conll&#45;&gt;grew_surf -->
<g id="edge3" class="edge">
<title>das_conll&#45;&gt;grew_surf</title>
<path fill="none" stroke="#000000" d="M178.3501,-289.7052C170.7126,-281.0534 161.4636,-270.5759 153.1407,-261.1477"/>
<polygon fill="#000000" stroke="#000000" points="155.6649,-258.7184 146.423,-253.5378 150.4171,-263.351 155.6649,-258.7184"/>
</g>
<!-- cut10&#45;&gt;das_conll -->
<g id="edge2" class="edge">
<title>cut10&#45;&gt;das_conll</title>
<path fill="none" stroke="#000000" d="M243.8454,-362.2052C235.9693,-353.5534 226.4312,-343.0759 217.8482,-333.6477"/>
<polygon fill="#000000" stroke="#000000" points="220.2406,-331.0765 210.9206,-326.0378 215.0643,-335.7888 220.2406,-331.0765"/>
</g>
<!-- s_conll -->
<g id="node4" class="node">
<title>s_conll</title>
<polygon fill="#a5d993" stroke="#000000" points="214.5,-181 46.5,-181 46.5,-145 214.5,-145 214.5,-181"/>
<text text-anchor="middle" x="130.5" y="-159.3" font-family="Menlo" font-size="14.00" fill="#000000">sequoia.surf.conll</text>
</g>
<!-- ssq_ud -->
<g id="node7" class="node">
<title>ssq_ud</title>
<path fill="none" stroke="#000000" d="M58.5,-72.5C58.5,-72.5 202.5,-72.5 202.5,-72.5 208.5,-72.5 214.5,-78.5 214.5,-84.5 214.5,-84.5 214.5,-96.5 214.5,-96.5 214.5,-102.5 208.5,-108.5 202.5,-108.5 202.5,-108.5 58.5,-108.5 58.5,-108.5 52.5,-108.5 46.5,-102.5 46.5,-96.5 46.5,-96.5 46.5,-84.5 46.5,-84.5 46.5,-78.5 52.5,-72.5 58.5,-72.5"/>
<text text-anchor="middle" x="130.5" y="-86.8" font-family="Menlo" font-size="14.00" fill="#000000">ssq_to_ud/main.grs</text>
</g>
<!-- s_conll&#45;&gt;ssq_ud -->
<g id="edge5" class="edge">
<title>s_conll&#45;&gt;ssq_ud</title>
<path fill="none" stroke="#000000" d="M130.5,-144.7052C130.5,-136.832 130.5,-127.4471 130.5,-118.7167"/>
<polygon fill="#000000" stroke="#000000" points="134.0001,-118.5378 130.5,-108.5378 127.0001,-118.5378 134.0001,-118.5378"/>
</g>
<!-- grew_surf&#45;&gt;s_conll -->
<g id="edge4" class="edge">
<title>grew_surf&#45;&gt;s_conll</title>
<path fill="none" stroke="#000000" d="M130.5,-217.2052C130.5,-209.332 130.5,-199.9471 130.5,-191.2167"/>
<polygon fill="#000000" stroke="#000000" points="134.0001,-191.0378 130.5,-181.0378 127.0001,-191.0378 134.0001,-191.0378"/>
</g>
<!-- ud_seq -->
<g id="node6" class="node">
<title>ud_seq</title>
<polygon fill="#a5d993" stroke="#000000" points="210.5,-36 50.5,-36 50.5,0 210.5,0 210.5,-36"/>
<text text-anchor="middle" x="130.5" y="-14.3" font-family="Menlo" font-size="14.00" fill="#000000">sequoia&#45;ud.conllu</text>
</g>
<!-- ssq_ud&#45;&gt;ud_seq -->
<g id="edge6" class="edge">
<title>ssq_ud&#45;&gt;ud_seq</title>
<path fill="none" stroke="#000000" d="M130.5,-72.2052C130.5,-64.332 130.5,-54.9471 130.5,-46.2167"/>
<polygon fill="#000000" stroke="#000000" points="134.0001,-46.0378 130.5,-36.0378 127.0001,-46.0378 134.0001,-46.0378"/>
</g>
<!-- s_semcor -->
<g id="node8" class="node">
<title>s_semcor</title>
<polygon fill="#ffcf66" stroke="#000000" points="540,-181 279,-181 279,-145 540,-145 540,-181"/>
<text text-anchor="middle" x="409.5" y="-159.3" font-family="Menlo" font-size="14.00" fill="#000000">sequoia.surf.parseme.frsemcor</text>
</g>
<!-- ssq_ud_semcor -->
<g id="node11" class="node">
<title>ssq_ud_semcor</title>
<path fill="none" stroke="#000000" d="M337.5,-72.5C337.5,-72.5 481.5,-72.5 481.5,-72.5 487.5,-72.5 493.5,-78.5 493.5,-84.5 493.5,-84.5 493.5,-96.5 493.5,-96.5 493.5,-102.5 487.5,-108.5 481.5,-108.5 481.5,-108.5 337.5,-108.5 337.5,-108.5 331.5,-108.5 325.5,-102.5 325.5,-96.5 325.5,-96.5 325.5,-84.5 325.5,-84.5 325.5,-78.5 331.5,-72.5 337.5,-72.5"/>
<text text-anchor="middle" x="409.5" y="-86.8" font-family="Menlo" font-size="14.00" fill="#000000">ssq_to_ud/main.grs</text>
</g>
<!-- s_semcor&#45;&gt;ssq_ud_semcor -->
<g id="edge9" class="edge">
<title>s_semcor&#45;&gt;ssq_ud_semcor</title>
<path fill="none" stroke="#000000" d="M409.5,-144.7052C409.5,-136.832 409.5,-127.4471 409.5,-118.7167"/>
<polygon fill="#000000" stroke="#000000" points="413.0001,-118.5378 409.5,-108.5378 406.0001,-118.5378 413.0001,-118.5378"/>
</g>
<!-- grew_surf_semcor&#45;&gt;s_semcor -->
<g id="edge8" class="edge">
<title>grew_surf_semcor&#45;&gt;s_semcor</title>
<path fill="none" stroke="#000000" d="M409.5,-217.2052C409.5,-209.332 409.5,-199.9471 409.5,-191.2167"/>
<polygon fill="#000000" stroke="#000000" points="413.0001,-191.0378 409.5,-181.0378 406.0001,-191.0378 413.0001,-191.0378"/>
</g>
<!-- ud_seq_semcor -->
<g id="node10" class="node">
<title>ud_seq_semcor</title>
<polygon fill="#ffcf66" stroke="#000000" points="531.5,-36 287.5,-36 287.5,0 531.5,0 531.5,-36"/>
<text text-anchor="middle" x="409.5" y="-14.3" font-family="Menlo" font-size="14.00" fill="#000000">sequoia&#45;ud.parseme.frsemcor</text>
</g>
<!-- ssq_ud_semcor&#45;&gt;ud_seq_semcor -->
<g id="edge10" class="edge">
<title>ssq_ud_semcor&#45;&gt;ud_seq_semcor</title>
<path fill="none" stroke="#000000" d="M409.5,-72.2052C409.5,-64.332 409.5,-54.9471 409.5,-46.2167"/>
<polygon fill="#000000" stroke="#000000" points="413.0001,-46.0378 409.5,-36.0378 406.0001,-46.0378 413.0001,-46.0378"/>
</g>
</g>
</svg>
