<?xml version="1.0" standalone="no"?>
<!DOCTYPE svg PUBLIC "-//W3C//DTD SVG 1.1//EN"
"http://www.w3.org/Graphics/SVG/1.1/DTD/svg11.dtd">
<!-- Created with dep2pict 2.35.1 -->
<svg xmlns:svg="http://www.w3.org/2000/svg" xmlns="http://www.w3.org/2000/svg" xmlns:xlink="http://www.w3.org/1999/xlink" width="1843.38574" height="263.90820">
<rect x="0" y="0" width="1843.38574" height="263.90820" style="fill:white;fill-opacity:0;" />
<g  transform="translate(0,134.89844) scale(2,2)">
<text id="word__N_0" x="26.8428" y="-14.4062" font-style="normal" font-weight="normal" fill="black" font-size="12" font-family="Arial" text-anchor="middle" text-align="center">
<tspan   x="26.8428" dy="12.8633">__0__</tspan>
</text>
<text id="word__N_1" x="78.5862" y="-14.4062" font-style="normal" font-weight="normal" fill="black" font-size="12" font-family="Arial" text-anchor="middle" text-align="center">
<tspan   x="78.5862" dy="12.8633">L'</tspan>
</text>
<text id="subword__N_1" x="78.5862" y="-1.54297" fill="black" font-size="7" font-family="Arial" text-anchor="middle" text-align="center">
<tspan   x="78.5862" dy="8.33691">upos=D</tspan>
<tspan   x="78.5862" dy="8.33691">lemma=le</tspan>
<tspan   x="78.5862" dy="8.33691">n=s</tspan>
<tspan   x="78.5862" dy="8.33691">s=def</tspan>
</text>
<text id="word__N_2" x="135.391" y="-14.4062" font-style="normal" font-weight="normal" fill="black" font-size="12" font-family="Arial" text-anchor="middle" text-align="center">
<tspan   x="135.391" dy="12.8633">affaire</tspan>
</text>
<text id="subword__N_2" x="135.391" y="-1.54297" fill="black" font-size="7" font-family="Arial" text-anchor="middle" text-align="center">
<tspan   x="135.391" dy="8.33691">upos=N</tspan>
<tspan   x="135.391" dy="8.33691">lemma=affaire</tspan>
<tspan   x="135.391" dy="8.33691">g=f</tspan>
<tspan   x="135.391" dy="8.33691">n=s</tspan>
<tspan   x="135.391" dy="8.33691">s=c</tspan>
</text>
<text id="word__N_3" x="195.502" y="-14.4062" font-style="normal" font-weight="normal" fill="black" font-size="12" font-family="Arial" text-anchor="middle" text-align="center">
<tspan   x="195.502" dy="12.8633">fut</tspan>
</text>
<text id="subword__N_3" x="195.502" y="-1.54297" fill="black" font-size="7" font-family="Arial" text-anchor="middle" text-align="center">
<tspan   x="195.502" dy="8.33691">upos=V</tspan>
<tspan   x="195.502" dy="8.33691">lemma=être</tspan>
<tspan   x="195.502" dy="8.33691">m=ind</tspan>
<tspan   x="195.502" dy="8.33691">n=s</tspan>
<tspan   x="195.502" dy="8.33691">p=3</tspan>
<tspan   x="195.502" dy="8.33691">t=past</tspan>
</text>
<text id="word__N_4" x="258.335" y="-14.4062" font-style="normal" font-weight="normal" fill="black" font-size="12" font-family="Arial" text-anchor="middle" text-align="center">
<tspan   x="258.335" dy="12.8633">instruite</tspan>
</text>
<text id="subword__N_4" x="258.335" y="-1.54297" fill="black" font-size="7" font-family="Arial" text-anchor="middle" text-align="center">
<tspan   x="258.335" dy="8.33691">upos=V</tspan>
<tspan   x="258.335" dy="8.33691">lemma=instruire</tspan>
<tspan   x="258.335" dy="8.33691">g=f</tspan>
<tspan   x="258.335" dy="8.33691">m=part</tspan>
<tspan   x="258.335" dy="8.33691">n=s</tspan>
<tspan   x="258.335" dy="8.33691">t=past</tspan>
</text>
<text id="word__N_5" x="320.388" y="-14.4062" font-style="normal" font-weight="normal" fill="black" font-size="12" font-family="Arial" text-anchor="middle" text-align="center">
<tspan   x="320.388" dy="12.8633">par</tspan>
</text>
<text id="subword__N_5" x="320.388" y="-1.54297" fill="black" font-size="7" font-family="Arial" text-anchor="middle" text-align="center">
<tspan   x="320.388" dy="8.33691">upos=P</tspan>
<tspan   x="320.388" dy="8.33691">lemma=par</tspan>
</text>
<text id="word__N_6" x="372.717" y="-14.4062" font-style="normal" font-weight="normal" fill="black" font-size="12" font-family="Arial" text-anchor="middle" text-align="center">
<tspan   x="372.717" dy="12.8633">le</tspan>
</text>
<text id="subword__N_6" x="372.717" y="-1.54297" fill="black" font-size="7" font-family="Arial" text-anchor="middle" text-align="center">
<tspan   x="372.717" dy="8.33691">upos=D</tspan>
<tspan   x="372.717" dy="8.33691">lemma=le</tspan>
<tspan   x="372.717" dy="8.33691">g=m</tspan>
<tspan   x="372.717" dy="8.33691">n=s</tspan>
<tspan   x="372.717" dy="8.33691">s=def</tspan>
</text>
<text id="word__N_7" x="426.411" y="-14.4062" font-style="normal" font-weight="normal" fill="black" font-size="12" font-family="Arial" text-anchor="middle" text-align="center">
<tspan   x="426.411" dy="12.8633">juge</tspan>
</text>
<text id="subword__N_7" x="426.411" y="-1.54297" fill="black" font-size="7" font-family="Arial" text-anchor="middle" text-align="center">
<tspan   x="426.411" dy="8.33691">upos=N</tspan>
<tspan   x="426.411" dy="8.33691">lemma=juge</tspan>
<tspan   x="426.411" dy="8.33691">g=m</tspan>
<tspan   x="426.411" dy="8.33691">n=s</tspan>
<tspan   x="426.411" dy="8.33691">s=c</tspan>
</text>
<text id="word__N_8" x="489.529" y="-14.4062" font-style="normal" font-weight="normal" fill="black" font-size="12" font-family="Arial" text-anchor="middle" text-align="center">
<tspan   x="489.529" dy="12.8633">Armand</tspan>
</text>
<text id="subword__N_8" x="489.529" y="-1.54297" fill="black" font-size="7" font-family="Arial" text-anchor="middle" text-align="center">
<tspan   x="489.529" dy="8.33691">upos=N</tspan>
<tspan   x="489.529" dy="8.33691">lemma=Armand</tspan>
<tspan   x="489.529" dy="8.33691">g=m</tspan>
<tspan   x="489.529" dy="8.33691">n=s</tspan>
<tspan   x="489.529" dy="8.33691">s=p</tspan>
</text>
<text id="word__N_9" x="561.601" y="-14.4062" font-style="normal" font-weight="normal" fill="black" font-size="12" font-family="Arial" text-anchor="middle" text-align="center">
<tspan   x="561.601" dy="12.8633">Riberolles</tspan>
</text>
<text id="subword__N_9" x="561.601" y="-1.54297" fill="black" font-size="7" font-family="Arial" text-anchor="middle" text-align="center">
<tspan   x="561.601" dy="8.33691">upos=N</tspan>
<tspan   x="561.601" dy="8.33691">lemma=Riberolles</tspan>
<tspan   x="561.601" dy="8.33691">s=p</tspan>
</text>
<text id="word__N_10" x="640.97" y="-14.4062" font-style="normal" font-weight="normal" fill="black" font-size="12" font-family="Arial" text-anchor="middle" text-align="center">
<tspan   x="640.97" dy="12.8633">à</tspan>
</text>
<text id="subword__N_10" x="640.97" y="-1.54297" fill="black" font-size="7" font-family="Arial" text-anchor="middle" text-align="center">
<tspan   x="640.97" dy="8.33691">upos=P</tspan>
<tspan   x="640.97" dy="8.33691">lemma=à</tspan>
<tspan   x="640.97" dy="8.33691">mwehead=ADV</tspan>
<tspan   x="640.97" dy="8.33691">mwelemma=à_partir</tspan>
</text>
<text id="word__N_11" x="713.533" y="-14.4062" font-style="normal" font-weight="normal" fill="black" font-size="12" font-family="Arial" text-anchor="middle" text-align="center">
<tspan   x="713.533" dy="12.8633">partir</tspan>
</text>
<text id="subword__N_11" x="713.533" y="-1.54297" fill="black" font-size="7" font-family="Arial" text-anchor="middle" text-align="center">
<tspan   x="713.533" dy="8.33691">upos=V</tspan>
<tspan   x="713.533" dy="8.33691">lemma=partir</tspan>
<tspan   x="713.533" dy="8.33691">component=y</tspan>
<tspan   x="713.533" dy="8.33691">m=inf</tspan>
</text>
<text id="word__N_12" x="770.546" y="-14.4062" font-style="normal" font-weight="normal" fill="black" font-size="12" font-family="Arial" text-anchor="middle" text-align="center">
<tspan   x="770.546" dy="12.8633">de</tspan>
</text>
<text id="subword__N_12" x="770.546" y="-1.54297" fill="black" font-size="7" font-family="Arial" text-anchor="middle" text-align="center">
<tspan   x="770.546" dy="8.33691">upos=P</tspan>
<tspan   x="770.546" dy="8.33691">lemma=de</tspan>
</text>
<text id="word__N_13" x="826.565" y="-14.4062" font-style="normal" font-weight="normal" fill="black" font-size="12" font-family="Arial" text-anchor="middle" text-align="center">
<tspan   x="826.565" dy="12.8633">1997</tspan>
</text>
<text id="subword__N_13" x="826.565" y="-1.54297" fill="black" font-size="7" font-family="Arial" text-anchor="middle" text-align="center">
<tspan   x="826.565" dy="8.33691">upos=N</tspan>
<tspan   x="826.565" dy="8.33691">lemma=1997</tspan>
<tspan   x="826.565" dy="8.33691">s=card</tspan>
</text>
<text id="word__N_14" x="888.103" y="-14.4062" font-style="normal" font-weight="normal" fill="black" font-size="12" font-family="Arial" text-anchor="middle" text-align="center">
<tspan   x="888.103" dy="12.8633">.</tspan>
</text>
<text id="subword__N_14" x="888.103" y="-1.54297" fill="black" font-size="7" font-family="Arial" text-anchor="middle" text-align="center">
<tspan   x="888.103" dy="8.33691">upos=PONCT</tspan>
<tspan   x="888.103" dy="8.33691">lemma=.</tspan>
<tspan   x="888.103" dy="8.33691">s=s</tspan>
</text>

<marker id="markerendword_1" markerWidth="5" markerHeight="5" markerUnits="userSpaceOnUse" orient="auto" refX="2" refY="2">
<path d="M0,0 l4,2 l-4,2 z" style="fill:black;"/>
</marker>
<text id="label__N_2__N_1__det" x="105.58618" y="-24.40625" style="fill:black;font-size:5px;font-family:Arial;text-anchor:middle;text-align:center" >det</text>
<path style="marker-end:url(#markerendword_1);" stroke="black" fill="none" d="M 132.89087,-13.40625 132.89087,-18.40625 A 3 3 0 0 0 129.89087,-21.40625 L 81.58618,-21.40625 A 3 3 0 0 0 78.58618,-18.40625 L 78.58618,-13.40625" ></path>
<marker id="markerendword_3" markerWidth="5" markerHeight="5" markerUnits="userSpaceOnUse" orient="auto" refX="2" refY="2">
<path d="M0,0 l4,2 l-4,2 z" style="fill:black;"/>
</marker>
<text id="label__N_4__N_3__aux.pass" x="220.50244" y="-24.40625" style="fill:black;font-size:5px;font-family:Arial;text-anchor:middle;text-align:center" >aux.pass</text>
<path style="marker-end:url(#markerendword_3);" stroke="black" fill="none" d="M 245.83472,-13.40625 245.83472,-18.40625 A 3 3 0 0 0 242.83472,-21.40625 L 198.50244,-21.40625 A 3 3 0 0 0 195.50244,-18.40625 L 195.50244,-13.40625" ></path>
<marker id="markerendword_4" markerWidth="5" markerHeight="5" markerUnits="userSpaceOnUse" orient="auto" refX="2" refY="2">
<path d="M0,0 l4,2 l-4,2 z" style="fill:black;"/>
</marker>
<text id="label__N_4__N_5__p_obj.agt" x="294.33472" y="-24.40625" style="fill:black;font-size:5px;font-family:Arial;text-anchor:middle;text-align:center" >p_obj.agt</text>
<path style="marker-end:url(#markerendword_4);" stroke="black" fill="none" d="M 270.83472,-13.40625 270.83472,-18.40625 A 3 3 0 0 1 273.83472,-21.40625 L 314.88770,-21.40625 A 3 3 0 0 1 317.88770,-18.40625 L 317.88770,-13.40625" ></path>
<marker id="markerendword_8" markerWidth="5" markerHeight="5" markerUnits="userSpaceOnUse" orient="auto" refX="2" refY="2">
<path d="M0,0 l4,2 l-4,2 z" style="fill:black;"/>
</marker>
<text id="label__N_7__N_6__det" x="395.71655" y="-24.40625" style="fill:black;font-size:5px;font-family:Arial;text-anchor:middle;text-align:center" >det</text>
<path style="marker-end:url(#markerendword_8);" stroke="black" fill="none" d="M 418.91089,-13.40625 418.91089,-18.40625 A 3 3 0 0 0 415.91089,-21.40625 L 375.71655,-21.40625 A 3 3 0 0 0 372.71655,-18.40625 L 372.71655,-13.40625" ></path>
<marker id="markerendword_9" markerWidth="5" markerHeight="5" markerUnits="userSpaceOnUse" orient="auto" refX="2" refY="2">
<path d="M0,0 l4,2 l-4,2 z" style="fill:black;"/>
</marker>
<text id="label__N_7__N_8__mod" x="461.41089" y="-24.40625" style="fill:black;font-size:5px;font-family:Arial;text-anchor:middle;text-align:center" >mod</text>
<path style="marker-end:url(#markerendword_9);" stroke="black" fill="none" d="M 433.91089,-13.40625 433.91089,-18.40625 A 3 3 0 0 1 436.91089,-21.40625 L 486.52856,-21.40625 A 3 3 0 0 1 489.52856,-18.40625 L 489.52856,-13.40625" ></path>
<marker id="markerendword_11" markerWidth="5" markerHeight="5" markerUnits="userSpaceOnUse" orient="auto" refX="2" refY="2">
<path d="M0,0 l4,2 l-4,2 z" style="fill:black;"/>
</marker>
<text id="label__N_10__N_11__dep_cpd" x="679.46973" y="-24.40625" style="fill:black;font-size:5px;font-family:Arial;text-anchor:middle;text-align:center" >dep_cpd</text>
<path style="marker-end:url(#markerendword_11);" stroke="black" fill="none" d="M 645.96973,-13.40625 645.96973,-18.40625 A 3 3 0 0 1 648.96973,-21.40625 L 710.53296,-21.40625 A 3 3 0 0 1 713.53296,-18.40625 L 713.53296,-13.40625" ></path>
<marker id="markerendword_13" markerWidth="5" markerHeight="5" markerUnits="userSpaceOnUse" orient="auto" refX="2" refY="2">
<path d="M0,0 l4,2 l-4,2 z" style="fill:black;"/>
</marker>
<text id="label__N_12__N_13__obj.p" x="799.54614" y="-24.40625" style="fill:black;font-size:5px;font-family:Arial;text-anchor:middle;text-align:center" >obj.p</text>
<path style="marker-end:url(#markerendword_13);" stroke="black" fill="none" d="M 773.04614,-13.40625 773.04614,-18.40625 A 3 3 0 0 1 776.04614,-21.40625 L 823.56470,-21.40625 A 3 3 0 0 1 826.56470,-18.40625 L 826.56470,-13.40625" ></path>
<marker id="markerendword_2" markerWidth="5" markerHeight="5" markerUnits="userSpaceOnUse" orient="auto" refX="2" refY="2">
<path d="M0,0 l4,2 l-4,2 z" style="fill:black;"/>
</marker>
<text id="label__N_4__N_2__suj" x="193.89087" y="-34.40625" style="fill:black;font-size:5px;font-family:Arial;text-anchor:middle;text-align:center" >suj</text>
<path style="marker-end:url(#markerendword_2);" stroke="black" fill="none" d="M 250.83472,-13.40625 250.83472,-28.40625 A 3 3 0 0 0 247.83472,-31.40625 L 140.89087,-31.40625 A 3 3 0 0 0 137.89087,-28.40625 L 137.89087,-13.40625" ></path>
<marker id="markerendword_7" markerWidth="5" markerHeight="5" markerUnits="userSpaceOnUse" orient="auto" refX="2" refY="2">
<path d="M0,0 l4,2 l-4,2 z" style="fill:black;"/>
</marker>
<text id="label__N_5__N_7__obj.p" x="373.38770" y="-34.40625" style="fill:black;font-size:5px;font-family:Arial;text-anchor:middle;text-align:center" >obj.p</text>
<path style="marker-end:url(#markerendword_7);" stroke="black" fill="none" d="M 322.88770,-13.40625 322.88770,-28.40625 A 3 3 0 0 1 325.88770,-31.40625 L 420.91089,-31.40625 A 3 3 0 0 1 423.91089,-28.40625 L 423.91089,-13.40625" ></path>
<marker id="markerendword_10" markerWidth="5" markerHeight="5" markerUnits="userSpaceOnUse" orient="auto" refX="2" refY="2">
<path d="M0,0 l4,2 l-4,2 z" style="fill:black;"/>
</marker>
<text id="label__N_7__N_9__mod" x="494.91089" y="-34.40625" style="fill:black;font-size:5px;font-family:Arial;text-anchor:middle;text-align:center" >mod</text>
<path style="marker-end:url(#markerendword_10);" stroke="black" fill="none" d="M 428.91089,-13.40625 428.91089,-28.40625 A 3 3 0 0 1 431.91089,-31.40625 L 558.60132,-31.40625 A 3 3 0 0 1 561.60132,-28.40625 L 561.60132,-13.40625" ></path>
<marker id="markerendword_12" markerWidth="5" markerHeight="5" markerUnits="userSpaceOnUse" orient="auto" refX="2" refY="2">
<path d="M0,0 l4,2 l-4,2 z" style="fill:black;"/>
</marker>
<text id="label__N_10__N_12__dep" x="704.46973" y="-34.40625" style="fill:black;font-size:5px;font-family:Arial;text-anchor:middle;text-align:center" >dep</text>
<path style="marker-end:url(#markerendword_12);" stroke="black" fill="none" d="M 640.96973,-13.40625 640.96973,-28.40625 A 3 3 0 0 1 643.96973,-31.40625 L 765.04614,-31.40625 A 3 3 0 0 1 768.04614,-28.40625 L 768.04614,-13.40625" ></path>
<marker id="markerendword_0" markerWidth="5" markerHeight="5" markerUnits="userSpaceOnUse" orient="auto" refX="2" refY="2">
<path d="M0,0 l4,2 l-4,2 z" style="fill:black;"/>
</marker>
<text id="label__N_0__N_4__root" x="140.84277" y="-44.40625" style="fill:black;font-size:5px;font-family:Arial;text-anchor:middle;text-align:center" >root</text>
<path style="marker-end:url(#markerendword_0);" stroke="black" fill="none" d="M 26.84277,-13.40625 26.84277,-38.40625 A 3 3 0 0 1 29.84277,-41.40625 L 252.83472,-41.40625 A 3 3 0 0 1 255.83472,-38.40625 L 255.83472,-13.40625" ></path>
<marker id="markerendword_5" markerWidth="5" markerHeight="5" markerUnits="userSpaceOnUse" orient="auto" refX="2" refY="2">
<path d="M0,0 l4,2 l-4,2 z" style="fill:black;"/>
</marker>
<text id="label__N_4__N_10__mod" x="450.83472" y="-44.40625" style="fill:black;font-size:5px;font-family:Arial;text-anchor:middle;text-align:center" >mod</text>
<path style="marker-end:url(#markerendword_5);" stroke="black" fill="none" d="M 265.83472,-13.40625 265.83472,-38.40625 A 3 3 0 0 1 268.83472,-41.40625 L 632.96973,-41.40625 A 3 3 0 0 1 635.96973,-38.40625 L 635.96973,-13.40625" ></path>
<marker id="markerendword_6" markerWidth="5" markerHeight="5" markerUnits="userSpaceOnUse" orient="auto" refX="2" refY="2">
<path d="M0,0 l4,2 l-4,2 z" style="fill:black;"/>
</marker>
<text id="label__N_4__N_14__ponct" x="574.33472" y="-54.40625" style="fill:black;font-size:5px;font-family:Arial;text-anchor:middle;text-align:center" >ponct</text>
<path style="marker-end:url(#markerendword_6);" stroke="black" fill="none" d="M 260.83472,-13.40625 260.83472,-48.40625 A 3 3 0 0 1 263.83472,-51.40625 L 885.10327,-51.40625 A 3 3 0 0 1 888.10327,-48.40625 L 888.10327,-13.40625" ></path>


</g>
</svg>
